<?xml version="1.0" encoding="UTF-8"?><svg xmlns="http://www.w3.org/2000/svg" xmlns:xlink="http://www.w3.org/1999/xlink" height="1443pt" style="width:856px;height:1443px;" version="1.1" viewBox="0 0 856 1443" width="856pt">
    <defs>
        <filter height="300%" id="f1" width="300%" x="-1" y="-1">
            <feGaussianBlur result="blurOut" stdDeviation="2.0"/>
            <feColorMatrix in="blurOut" result="blurOut2" type="matrix" values="0 0 0 0 0 0 0 0 0 0 0 0 0 0 0 0 0 0 .4 0"/>
            <feOffset dx="4.0" dy="4.0" in="blurOut2" result="blurOut3"/>
            <feBlend in="SourceGraphic" in2="blurOut3" mode="normal"/>
        </filter>
    </defs>
    <g>
        <rect fill="#FEFECE" filter="url(#f1)" height="82.8906" rx="12.5" ry="12.5" style="stroke: #A80036; stroke-width: 1.5;" width="140" x="573.389" y="106"/>
        <line style="stroke: #A80036; stroke-width: 1.5;" x1="573.389" x2="713.389" y1="133.6094" y2="133.6094"/>
        <text fill="#000000" font-size="14" lengthAdjust="spacingAndGlyphs" textLength="42" x="622.389" y="125">未付款</text>
        <text fill="#000000" font-size="12" lengthAdjust="spacingAndGlyphs" textLength="48" x="578.389" y="150.6094">初始状态</text>
        <text fill="#000000" font-size="12" lengthAdjust="spacingAndGlyphs" textLength="48" x="578.389" y="165.7031">status=0</text>
        <text fill="#FF0000" font-size="12" lengthAdjust="spacingAndGlyphs" textLength="120" x="578.389" y="180.7969">客户订单状态：待支付</text>
        <rect fill="#FEFECE" filter="url(#f1)" height="67.7969" rx="12.5" ry="12.5" style="stroke: #A80036; stroke-width: 1.5;" width="140" x="502.389" y="267"/>
        <line style="stroke: #A80036; stroke-width: 1.5;" x1="502.389" x2="642.389" y1="294.6094" y2="294.6094"/>
        <text fill="#000000" font-size="14" lengthAdjust="spacingAndGlyphs" textLength="56" x="544.389" y="286">支付失败</text>
        <text fill="#000000" font-size="12" lengthAdjust="spacingAndGlyphs" textLength="48" x="507.389" y="311.6094">status=1</text>
        <text fill="#FF0000" font-size="12" lengthAdjust="spacingAndGlyphs" textLength="120" x="507.389" y="326.7031">客户订单状态：待支付</text>
        <rect fill="#FEFECE" filter="url(#f1)" height="128.1719" rx="12.5" ry="12.5" style="stroke: #A80036; stroke-width: 1.5;" width="164" x="253.389" y="413"/>
        <line style="stroke: #A80036; stroke-width: 1.5;" x1="253.389" x2="417.389" y1="440.6094" y2="440.6094"/>
        <text fill="#000000" font-size="14" lengthAdjust="spacingAndGlyphs" textLength="42" x="314.389" y="432">未指派</text>
        <text fill="#000000" font-size="12" lengthAdjust="spacingAndGlyphs" textLength="48" x="258.389" y="457.6094">status=2</text>
        <text fill="#000000" font-size="12" lengthAdjust="spacingAndGlyphs" textLength="88" x="258.389" y="472.7031">- auto :: boolean</text>
        <text fill="#FF0000" font-size="12" lengthAdjust="spacingAndGlyphs" textLength="120" x="258.389" y="487.7969">客户订单状态：已下单</text>
        <text fill="#000000" font-size="12" lengthAdjust="spacingAndGlyphs" textLength="33" x="258.389" y="502.8906">if auto</text>
        <text fill="#AA00FF" font-size="12" lengthAdjust="spacingAndGlyphs" textLength="120" x="282.389" y="517.9844">增加取菜员实时任务量</text>
        <text fill="#AA00FF" font-size="12" lengthAdjust="spacingAndGlyphs" textLength="108" x="282.389" y="533.0781">自动跳转到下个状态</text>
        <rect fill="#FEFECE" filter="url(#f1)" height="97.9844" rx="12.5" ry="12.5" style="stroke: #A80036; stroke-width: 1.5;" width="140" x="99.3893" y="619"/>
        <line style="stroke: #A80036; stroke-width: 1.5;" x1="99.3893" x2="239.3893" y1="646.6094" y2="646.6094"/>
        <text fill="#000000" font-size="14" lengthAdjust="spacingAndGlyphs" textLength="42" x="148.3893" y="638">配餐中</text>
        <text fill="#000000" font-size="12" lengthAdjust="spacingAndGlyphs" textLength="48" x="104.3893" y="663.6094">status=3</text>
        <text fill="#FF0000" font-size="12" lengthAdjust="spacingAndGlyphs" textLength="120" x="104.3893" y="678.7031">客户订单状态：已接单</text>
        <text fill="#008000" font-size="12" lengthAdjust="spacingAndGlyphs" textLength="108" x="104.3893" y="693.7969">取菜员状态：未确认</text>
        <text fill="#0000FF" font-size="12" lengthAdjust="spacingAndGlyphs" textLength="108" x="104.3893" y="708.8906">配送员状态：未完成</text>
        <rect fill="#FEFECE" filter="url(#f1)" height="97.9844" rx="12.5" ry="12.5" style="stroke: #A80036; stroke-width: 1.5;" width="236" x="303.389" y="882.5"/>
        <line style="stroke: #A80036; stroke-width: 1.5;" x1="303.389" x2="539.389" y1="910.1094" y2="910.1094"/>
        <text fill="#000000" font-size="14" lengthAdjust="spacingAndGlyphs" textLength="56" x="393.389" y="901.5">缺失菜品</text>
        <text fill="#000000" font-size="12" lengthAdjust="spacingAndGlyphs" textLength="48" x="308.389" y="927.1094">status=4</text>
        <text fill="#FF0000" font-size="12" lengthAdjust="spacingAndGlyphs" textLength="120" x="308.389" y="942.2031">客户订单状态：已接单</text>
        <text fill="#008000" font-size="12" lengthAdjust="spacingAndGlyphs" textLength="120" x="308.389" y="957.2969">取菜员状态：客服处理</text>
        <text fill="#AA00FF" font-size="12" lengthAdjust="spacingAndGlyphs" textLength="216" x="308.389" y="972.3906">释放加菜权限时，回退用户代金券、积分</text>
        <rect fill="#FEFECE" filter="url(#f1)" height="143.2656" rx="12.5" ry="12.5" style="stroke: #A80036; stroke-width: 1.5;" width="164" x="22.3893" y="860"/>
        <line style="stroke: #A80036; stroke-width: 1.5;" x1="22.3893" x2="186.3893" y1="887.6094" y2="887.6094"/>
        <text fill="#000000" font-size="14" lengthAdjust="spacingAndGlyphs" textLength="56" x="76.3893" y="879">配餐完成</text>
        <text fill="#000000" font-size="12" lengthAdjust="spacingAndGlyphs" textLength="48" x="27.3893" y="904.6094">status=5</text>
        <text fill="#FF0000" font-size="12" lengthAdjust="spacingAndGlyphs" textLength="120" x="27.3893" y="919.7031">客户订单状态：已接单</text>
        <text fill="#008000" font-size="12" lengthAdjust="spacingAndGlyphs" textLength="108" x="27.3893" y="934.7969">取菜员状态：未配送</text>
        <text fill="#0000FF" font-size="12" lengthAdjust="spacingAndGlyphs" textLength="108" x="27.3893" y="949.8906">配送员状态：未完成</text>
        <text fill="#000000" font-size="12" lengthAdjust="spacingAndGlyphs" textLength="33" x="27.3893" y="964.9844">if auto</text>
        <text fill="#AA00FF" font-size="12" lengthAdjust="spacingAndGlyphs" textLength="120" x="51.3893" y="980.0781">减少取菜员实时任务量</text>
        <text fill="#AA00FF" font-size="12" lengthAdjust="spacingAndGlyphs" textLength="108" x="51.3893" y="995.1719">自动跳转到下个状态</text>
        <rect fill="#FEFECE" filter="url(#f1)" height="97.9844" rx="12.5" ry="12.5" style="stroke: #A80036; stroke-width: 1.5;" width="140" x="242.389" y="1081"/>
        <line style="stroke: #A80036; stroke-width: 1.5;" x1="242.389" x2="382.389" y1="1108.6094" y2="1108.6094"/>
        <text fill="#000000" font-size="14" lengthAdjust="spacingAndGlyphs" textLength="42" x="291.389" y="1100">配送中</text>
        <text fill="#000000" font-size="12" lengthAdjust="spacingAndGlyphs" textLength="48" x="247.389" y="1125.6094">status=6</text>
        <text fill="#FF0000" font-size="12" lengthAdjust="spacingAndGlyphs" textLength="120" x="247.389" y="1140.7031">客户订单状态：配送中</text>
        <text fill="#008000" font-size="12" lengthAdjust="spacingAndGlyphs" textLength="108" x="247.389" y="1155.7969">取菜员状态：已完成</text>
        <text fill="#0000FF" font-size="12" lengthAdjust="spacingAndGlyphs" textLength="108" x="247.389" y="1170.8906">配送员状态：未完成</text>
        <rect fill="#FEFECE" filter="url(#f1)" height="97.9844" rx="12.5" ry="12.5" style="stroke: #A80036; stroke-width: 1.5;" width="140" x="242.389" y="1257"/>
        <line style="stroke: #A80036; stroke-width: 1.5;" x1="242.389" x2="382.389" y1="1284.6094" y2="1284.6094"/>
        <text fill="#000000" font-size="14" lengthAdjust="spacingAndGlyphs" textLength="42" x="291.389" y="1276">已完成</text>
        <text fill="#000000" font-size="12" lengthAdjust="spacingAndGlyphs" textLength="48" x="247.389" y="1301.6094">status=8</text>
        <text fill="#FF0000" font-size="12" lengthAdjust="spacingAndGlyphs" textLength="120" x="247.389" y="1316.7031">客户订单状态：已完成</text>
        <text fill="#008000" font-size="12" lengthAdjust="spacingAndGlyphs" textLength="108" x="247.389" y="1331.7969">取菜员状态：已完成</text>
        <text fill="#0000FF" font-size="12" lengthAdjust="spacingAndGlyphs" textLength="108" x="247.389" y="1346.8906">配送员状态：已完成</text>
        <rect fill="#FEFECE" filter="url(#f1)" height="97.9844" rx="12.5" ry="12.5" style="stroke: #A80036; stroke-width: 1.5;" width="176" x="417.389" y="1257"/>
        <line style="stroke: #A80036; stroke-width: 1.5;" x1="417.389" x2="593.389" y1="1284.6094" y2="1284.6094"/>
        <text fill="#000000" font-size="14" lengthAdjust="spacingAndGlyphs" textLength="42" x="484.389" y="1276">已取消</text>
        <text fill="#000000" font-size="12" lengthAdjust="spacingAndGlyphs" textLength="48" x="422.389" y="1301.6094">status=9</text>
        <text fill="#FF0000" font-size="12" lengthAdjust="spacingAndGlyphs" textLength="120" x="422.389" y="1316.7031">客户订单状态：已取消</text>
        <text fill="#008000" font-size="12" lengthAdjust="spacingAndGlyphs" textLength="108" x="422.389" y="1331.7969">取菜员状态：已完成</text>
        <text fill="#808080" font-size="12" lengthAdjust="spacingAndGlyphs" textLength="48" x="530.389" y="1331.7969">（灰色）</text>
        <text fill="#0000FF" font-size="12" lengthAdjust="spacingAndGlyphs" textLength="108" x="422.389" y="1346.8906">配送员状态：已完成</text>
        <text fill="#808080" font-size="12" lengthAdjust="spacingAndGlyphs" textLength="48" x="530.389" y="1346.8906">（灰色）</text>
        <ellipse cx="643.389" cy="18" fill="#000000" filter="url(#f1)" rx="10" ry="10" style="stroke: none; stroke-width: 1.0;"/>
        <ellipse cx="427.389" cy="1426" fill="none" filter="url(#f1)" rx="10" ry="10" style="stroke: #000000; stroke-width: 1.0;"/>
        <ellipse cx="427.889" cy="1426.5" fill="#000000" rx="6" ry="6" style="stroke: none; stroke-width: 1.0;"/>
        <path d="M643.389,28.17 C643.389,43.21 643.389,74.1 643.389,100.55 " fill="none" style="stroke: #A80036; stroke-width: 1.0;"/>
        <polygon fill="#A80036" points="643.389,105.77,647.389,96.77,643.389,100.77,639.389,96.77,643.389,105.77" style="stroke: #A80036; stroke-width: 1.0;"/>
        <text fill="#000000" font-size="13" lengthAdjust="spacingAndGlyphs" textLength="78" x="644.389" y="72">客户创建订单</text>
        <path d="M573.086,156.3 C504.765,167.92 403.994,196.61 352.389,267 C323.062,307 320.137,363.63 323.817,407.85 " fill="none" style="stroke: #A80036; stroke-width: 1.0;"/>
        <polygon fill="#A80036" points="324.271,412.9,327.4581,403.5811,323.8281,407.9197,319.4895,404.2897,324.271,412.9" style="stroke: #A80036; stroke-width: 1.0;"/>
        <text fill="#000000" font-size="13" lengthAdjust="spacingAndGlyphs" textLength="78" x="377.389" y="298">客户支付成功</text>
        <text fill="#AA00FF" font-size="13" lengthAdjust="spacingAndGlyphs" textLength="130" x="353.389" y="314.3516">扣除用户代金券、积分</text>
        <path d="M665.442,189.01 C679.615,218.81 695.389,260.79 695.389,300 C695.389,300 695.389,300 695.389,1131 C695.389,1189.289 646.154,1233.323 597.81,1262.51 " fill="none" style="stroke: #A80036; stroke-width: 1.0;"/>
        <polygon fill="#A80036" points="593.437,1265.112,603.2165,1263.9455,597.7334,1262.5545,599.1245,1257.0713,593.437,1265.112" style="stroke: #A80036; stroke-width: 1.0;"/>
        <text fill="#000000" font-size="13" lengthAdjust="spacingAndGlyphs" textLength="78" x="696.389" y="673">客户取消付款</text>
        <path d="M527.299,335.01 C514.11,344.67 499.669,355.25 486.389,365 C465.486,380.34 442.966,396.88 421.86,412.4 " fill="none" style="stroke: #A80036; stroke-width: 1.0;"/>
        <polygon fill="#A80036" points="417.658,415.49,427.2787,413.3823,421.6866,412.5285,422.5403,406.9365,417.658,415.49" style="stroke: #A80036; stroke-width: 1.0;"/>
        <text fill="#000000" font-size="13" lengthAdjust="spacingAndGlyphs" textLength="78" x="487.389" y="379">客户支付成功</text>
        <path d="M578.499,335.23 C584.38,370.15 592.389,426.74 592.389,476 C592.389,476 592.389,476 592.389,1131 C592.389,1175.121 569.735,1219.522 547.546,1252.428 " fill="none" style="stroke: #A80036; stroke-width: 1.0;"/>
        <polygon fill="#A80036" points="544.563,1256.79,552.9456,1251.6196,547.3858,1252.663,546.3424,1247.1032,544.563,1256.79" style="stroke: #A80036; stroke-width: 1.0;"/>
        <text fill="#000000" font-size="13" lengthAdjust="spacingAndGlyphs" textLength="78" x="593.389" y="793.5">客户取消支付</text>
        <path d="M607.533,189.01 C600.668,198.37 594.148,208.63 589.389,219 C583.304,232.26 579.372,247.74 576.842,261.6 " fill="none" style="stroke: #A80036; stroke-width: 1.0;"/>
        <polygon fill="#A80036" points="575.972,266.62,581.4557,258.439,576.8292,261.694,573.5742,257.0675,575.972,266.62" style="stroke: #A80036; stroke-width: 1.0;"/>
        <text fill="#000000" font-size="13" lengthAdjust="spacingAndGlyphs" textLength="78" x="590.389" y="233">客户支付失败</text>
        <path d="M253.127,534.212 C239.88,545.444 227.041,557.864 216.389,571 C206.009,583.801 197.174,599.274 190.062,614.025 " fill="none" style="stroke: #A80036; stroke-width: 1.0;"/>
        <polygon fill="#A80036" points="187.91,618.576,195.3732,612.1494,190.0472,614.0558,188.1409,608.7298,187.91,618.576" style="stroke: #A80036; stroke-width: 1.0;"/>
        <text fill="#000000" font-size="13" lengthAdjust="spacingAndGlyphs" textLength="65" x="217.389" y="585">指派取菜员</text>
        <path d="M159.098,717.034 C154.511,751.553 154.465,797.538 177.389,830 C205.629,869.989 252.806,894.104 298.19,908.631 " fill="none" style="stroke: #A80036; stroke-width: 1.0;"/>
        <polygon fill="#A80036" points="303.143,910.181,295.748,903.6761,298.3711,908.688,293.3592,911.3111,303.143,910.181" style="stroke: #A80036; stroke-width: 1.0;"/>
        <text fill="#000000" font-size="13" lengthAdjust="spacingAndGlyphs" textLength="78" x="189.389" y="785.5">无法配齐菜色</text>
        <text fill="#AA00FF" font-size="13" lengthAdjust="spacingAndGlyphs" textLength="104" x="178.389" y="801.8516">更新订单明细状态</text>
        <path d="M432.285,980.816 C448.021,1050.599 477.011,1179.156 493.358,1251.649 " fill="none" style="stroke: #A80036; stroke-width: 1.0;"/>
        <polygon fill="#A80036" points="494.513,1256.77,496.4348,1247.1105,493.4129,1251.8925,488.6309,1248.8706,494.513,1256.77" style="stroke: #A80036; stroke-width: 1.0;"/>
        <text fill="#000000" font-size="13" lengthAdjust="spacingAndGlyphs" textLength="52" x="477.389" y="1135">取消订单</text>
        <path d="M396.214,882.479 C375.552,840.215 347.895,776.336 336.389,717 C325.376,660.208 326.062,594.388 328.971,546.217 " fill="none" style="stroke: #A80036; stroke-width: 1.0;"/>
        <polygon fill="#A80036" points="329.297,541.023,324.7417,549.7551,328.9841,546.0132,332.726,550.2557,329.297,541.023" style="stroke: #A80036; stroke-width: 1.0;"/>
        <text fill="#000000" font-size="13" lengthAdjust="spacingAndGlyphs" textLength="26" x="387.389" y="665">换菜</text>
        <text fill="#AA00FF" font-size="13" lengthAdjust="spacingAndGlyphs" textLength="130" x="337.389" y="681.3516">扣除用户代金券、积分</text>
        <path d="M444.771,882.29 C471.798,819.507 508.244,707.354 472.389,619 C461.167,591.346 441.627,566.133 420.762,544.92 " fill="none" style="stroke: #A80036; stroke-width: 1.0;"/>
        <polygon fill="#A80036" points="417.128,541.278,420.6524,550.4747,420.6592,544.8178,426.3161,544.8247,417.128,541.278" style="stroke: #A80036; stroke-width: 1.0;"/>
        <text fill="#000000" font-size="13" lengthAdjust="spacingAndGlyphs" textLength="26" x="488.389" y="673">退菜</text>
        <path d="M539.657,907.253 C659.825,875.946 828.389,807.369 828.389,669 C828.389,300 828.389,300 828.389,300 C828.389,240.06 769.535,199.54 718.218,175.6 " fill="none" style="stroke: #A80036; stroke-width: 1.0;"/>
        <polygon fill="#A80036" points="713.594,173.48,720.1042,180.8704,718.138,175.5662,723.4421,173.6,713.594,173.48" style="stroke: #A80036; stroke-width: 1.0;"/>
        <text fill="#000000" font-size="13" lengthAdjust="spacingAndGlyphs" textLength="26" x="829.389" y="482">换菜</text>
        <path d="M99.2758,687.24 C68.8643,699.011 36.1917,717.767 18.3893,747 C-0.7975,778.506 5.605,795.397 18.3893,830 C21.6125,838.724 25.9683,847.203 31.0176,855.296 " fill="none" style="stroke: #A80036; stroke-width: 1.0;"/>
        <polygon fill="#A80036" points="33.8914,859.752,32.3749,850.0206,31.1814,855.5501,25.6519,854.3566,33.8914,859.752" style="stroke: #A80036; stroke-width: 1.0;"/>
        <text fill="#000000" font-size="13" lengthAdjust="spacingAndGlyphs" textLength="104" x="23.8893" y="761">全部菜色均已配齐</text>
        <text fill="#AA00FF" font-size="13" lengthAdjust="spacingAndGlyphs" textLength="78" x="38.8893" y="777.3516">优惠物品反馈</text>
        <text fill="#AA00FF" font-size="13" lengthAdjust="spacingAndGlyphs" textLength="78" x="38.8893" y="793.7031">更新客户积分</text>
        <text fill="#AA00FF" font-size="13" lengthAdjust="spacingAndGlyphs" textLength="117" x="19.3893" y="810.0547">更新餐厅、菜品销量</text>
        <text fill="#AA00FF" font-size="13" lengthAdjust="spacingAndGlyphs" textLength="104" x="25.8893" y="826.4063">更新订单明细状态</text>
        <path d="M179.188,1003.163 C205.058,1027.603 233.55,1054.52 257.522,1077.166 " fill="none" style="stroke: #A80036; stroke-width: 1.0;"/>
        <polygon fill="#A80036" points="261.329,1080.763,257.5349,1071.6743,257.6949,1077.3289,252.0403,1077.4889,261.329,1080.763" style="stroke: #A80036; stroke-width: 1.0;"/>
        <text fill="#000000" font-size="13" lengthAdjust="spacingAndGlyphs" textLength="117" x="228.389" y="1047">取菜员交付给配送员</text>
        <path d="M312.389,1179.007 C312.389,1201.545 312.389,1228.485 312.389,1251.658 " fill="none" style="stroke: #A80036; stroke-width: 1.0;"/>
        <polygon fill="#A80036" points="312.389,1256.848,316.389,1247.848,312.389,1251.848,308.389,1247.848,312.389,1256.848" style="stroke: #A80036; stroke-width: 1.0;"/>
        <text fill="#000000" font-size="13" lengthAdjust="spacingAndGlyphs" textLength="26" x="313.389" y="1223">送达</text>
        <path d="M344.503,1179.059 C356.576,1195.278 371.106,1212.843 386.389,1227 C396.558,1236.419 407.985,1245.456 419.632,1253.826 " fill="none" style="stroke: #A80036; stroke-width: 1.0;"/>
        <polygon fill="#A80036" points="423.93,1256.879,418.9085,1248.4064,419.8535,1253.9838,414.2762,1254.9288,423.93,1256.879" style="stroke: #A80036; stroke-width: 1.0;"/>
        <text fill="#000000" font-size="13" lengthAdjust="spacingAndGlyphs" textLength="39" x="387.389" y="1223">送不到</text>
        <path d="M359.496,1355.3356 C380.857,1377.254 404.198,1401.2037 417.192,1414.5362 " fill="none" style="stroke: #A80036; stroke-width: 1.0;"/>
        <polygon fill="#A80036" points="420.878,1418.3191,417.462,1409.0816,417.3886,1414.738,411.7322,1414.6646,420.878,1418.3191" style="stroke: #A80036; stroke-width: 1.0;"/>
        <path d="M473.439,1355.3356 C459.529,1376.3789 444.381,1399.2944 435.395,1412.8893 " fill="none" style="stroke: #A80036; stroke-width: 1.0;"/>
        <polygon fill="#A80036" points="432.594,1417.1262,440.8937,1411.8238,435.3511,1412.9551,434.2199,1407.4125,432.594,1417.1262" style="stroke: #A80036; stroke-width: 1.0;"/>
    </g>
</svg>
